…
``` r
# We can make a dataset with all of the different prices in different columns for each vehicle
prices_wide <- cars_df %>% 
  group_by(new_id) %>%
  arrange(desc(posting_date)) %>%  # arrange so that the most recent posting comes first
  mutate(row = row_number()) %>% 
  pivot_wider(id_cols = new_id, names_from = row, values_from = price)

#  Each car id listed with all prices it was listed at
prices_wide
```

    ## # A tibble: 33,438 x 36
    ## # Groups:   new_id [33,438]
    ##        new_id   `1`   `2`   `3`   `4`   `5`   `6`   `7`   `8`   `9`  `10`  `11`
    ##         <dbl> <dbl> <dbl> <dbl> <dbl> <dbl> <dbl> <dbl> <dbl> <dbl> <dbl> <dbl>
    ##  1 7240997746     0    NA    NA    NA    NA    NA    NA    NA    NA    NA    NA
    ##  2 7240996551 14590 14590 14590 14590 14590 14990 14990    NA    NA    NA    NA
    ##  3 7240994424 30997    NA    NA    NA    NA    NA    NA    NA    NA    NA    NA
    ##  4 7240994244     0    NA    NA    NA    NA    NA    NA    NA    NA    NA    NA
    ##  5 7240994124 31990 31990    NA    NA    NA    NA    NA    NA    NA    NA    NA
    ##  6 7240993527  1995    NA    NA    NA    NA    NA    NA    NA    NA    NA    NA
    ##  7 7240993149 13000    NA    NA    NA    NA    NA    NA    NA    NA    NA    NA
    ##  8 7240992096 20000    NA    NA    NA    NA    NA    NA    NA    NA    NA    NA
    ##  9 7240991888 16995    NA    NA    NA    NA    NA    NA    NA    NA    NA    NA
    ## 10 7240991818 14590 14590    NA    NA    NA    NA    NA    NA    NA    NA    NA
    ## # ... with 33,428 more rows, and 24 more variables: 12 <dbl>, 13 <dbl>,
    ## #   14 <dbl>, 15 <dbl>, 16 <dbl>, 17 <dbl>, 18 <dbl>, 19 <dbl>, 20 <dbl>,
    ## #   21 <dbl>, 22 <dbl>, 23 <dbl>, 24 <dbl>, 25 <dbl>, 26 <dbl>, 27 <dbl>,
    ## #   28 <dbl>, 29 <dbl>, 30 <dbl>, 31 <dbl>, 32 <dbl>, 33 <dbl>, 34 <dbl>,
    ## #   35 <dbl>
…
my.max <- function(x) ifelse(!all(is.na(x)), max(x, na.rm=T), NA)
my.min <- function(x) ifelse(!all(is.na(x)), min(x, na.rm=T), NA)
prices_wide$max <- apply(prices_wide[,-1], MARGIN = 1, FUN = my.max)
prices_wide$min <- apply(prices_wide[,-1], MARGIN = 1, FUN = my.min)
prices_wide <- prices_wide %>% select(new_id, max, min, everything())

# We can look at the listings which have different prices but where no prices are zero:
prices_wide %>% 
  filter((max-min)/max<1 & (max-min)/max>0) %>%  
  arrange(by = `1`)
```

    ## # A tibble: 1,134 x 38
    ## # Groups:   new_id [1,134]
    ##        new_id   max   min   `1`   `2`   `3`   `4`   `5`   `6`   `7`   `8`   `9`
    ##         <dbl> <dbl> <dbl> <dbl> <dbl> <dbl> <dbl> <dbl> <dbl> <dbl> <dbl> <dbl>
    ##  1 7239624019  4999   103   103  4999    NA    NA    NA    NA    NA    NA    NA
    ##  2 7240604781  6500   134   134  6500    NA    NA    NA    NA    NA    NA    NA
    ##  3 7240514254 10991   155   155 10991    NA    NA    NA    NA    NA    NA    NA
    ##  4 7240397224 10999   161   161 10999    NA    NA    NA    NA    NA    NA    NA
    ##  5 7240494251 11499   169   169 11499    NA    NA    NA    NA    NA    NA    NA
    ##  6 7240445478 12999   193   193 12999    NA    NA    NA    NA    NA    NA    NA
    ##  7 7240420378 13999   209   209 13999    NA    NA    NA    NA    NA    NA    NA
    ##  8 7237835864 10900   224   224 10900    NA    NA    NA    NA    NA    NA    NA
    ##  9 7240604848 10995   226   226 10995    NA    NA    NA    NA    NA    NA    NA
    ## 10 7237991319 11900   245   245 11900    NA    NA    NA    NA    NA    NA    NA
    ## # ... with 1,124 more rows, and 26 more variables: 10 <dbl>, 11 <dbl>,
    ## #   12 <dbl>, 13 <dbl>, 14 <dbl>, 15 <dbl>, 16 <dbl>, 17 <dbl>, 18 <dbl>,
    ## #   19 <dbl>, 20 <dbl>, 21 <dbl>, 22 <dbl>, 23 <dbl>, 24 <dbl>, 25 <dbl>,
    ## #   26 <dbl>, 27 <dbl>, 28 <dbl>, 29 <dbl>, 30 <dbl>, 31 <dbl>, 32 <dbl>,
    ## #   33 <dbl>, 34 <dbl>, 35 <dbl>
…
# Since the prices are arranged with the most recent first, the function will filter out prices that are NA or less than the percent cutoff, 
# which is 50% by default.

prices_wide$price <- apply(prices_wide[-1], MARGIN = 1, duplicate_price_function) 
prices_wide <- prices_wide %>% select(new_id, price, max, min, everything())
prices_wide %>% filter(((max-min)/max)>0 & ((max-min)/max)<1) %>% 
  arrange(by = `1`)
```

    ## # A tibble: 1,134 x 39
    ## # Groups:   new_id [1,134]
    ##        new_id price   max   min   `1`   `2`   `3`   `4`   `5`   `6`   `7`   `8`
    ##         <dbl> <dbl> <dbl> <dbl> <dbl> <dbl> <dbl> <dbl> <dbl> <dbl> <dbl> <dbl>
    ##  1 7239624019  4999  4999   103   103  4999    NA    NA    NA    NA    NA    NA
    ##  2 7240604781  6500  6500   134   134  6500    NA    NA    NA    NA    NA    NA
    ##  3 7240514254 10991 10991   155   155 10991    NA    NA    NA    NA    NA    NA
    ##  4 7240397224 10999 10999   161   161 10999    NA    NA    NA    NA    NA    NA
    ##  5 7240494251 11499 11499   169   169 11499    NA    NA    NA    NA    NA    NA
    ##  6 7240445478 12999 12999   193   193 12999    NA    NA    NA    NA    NA    NA
    ##  7 7240420378 13999 13999   209   209 13999    NA    NA    NA    NA    NA    NA
    ##  8 7237835864 10900 10900   224   224 10900    NA    NA    NA    NA    NA    NA
    ##  9 7240604848 10995 10995   226   226 10995    NA    NA    NA    NA    NA    NA
    ## 10 7237991319 11900 11900   245   245 11900    NA    NA    NA    NA    NA    NA
    ## # ... with 1,124 more rows, and 27 more variables: 9 <dbl>, 10 <dbl>, 11 <dbl>,
    ## #   12 <dbl>, 13 <dbl>, 14 <dbl>, 15 <dbl>, 16 <dbl>, 17 <dbl>, 18 <dbl>,
    ## #   19 <dbl>, 20 <dbl>, 21 <dbl>, 22 <dbl>, 23 <dbl>, 24 <dbl>, 25 <dbl>,
    ## #   26 <dbl>, 27 <dbl>, 28 <dbl>, 29 <dbl>, 30 <dbl>, 31 <dbl>, 32 <dbl>,
    ## #   33 <dbl>, 34 <dbl>, 35 <dbl>

``` r
# The prices look much better now. Now to assign these prices to our cars_df dataframe. There are still a few low prices but we can address them later
cars_df$price <- prices_wide[match(cars_df$new_id, prices_wide$new_id),]$price
cars_df[duplicated(cars_df$new_id)|duplicated(cars_df$new_id,fromLast = T),] %>% arrange(new_id)
```

    ## # A tibble: 26,405 x 15
    ##    price  year manufacturer model   VIN    region paint_color condition odometer
    ##    <dbl> <dbl> <chr>        <chr>   <chr>  <chr>  <chr>       <chr>        <dbl>
    ##  1 18990  2015 dodge        challe~ 2C3CD~ merced silver      good         42681
    ##  2 18990  2015 dodge        challe~ 2C3CD~ santa~ silver      good         42681
    ##  3 24590  2017 chrysler     pacifi~ 2C4RC~ baker~ <NA>        good         32625
    ##  4 24590  2017 chrysler     pacifi~ 2C4RC~ santa~ <NA>        good         32625
    ##  5 16590  2013 lexus        ct 200~ JTHKD~ baker~ red         good         46536
    ##  6 16590  2013 lexus        ct 200~ JTHKD~ santa~ red         good         46536
    ##  7 26590  2017 chrysler     pacifi~ 2C4RC~ baker~ <NA>        good         11882
    ##  8 26590  2017 chrysler     pacifi~ 2C4RC~ santa~ <NA>        good         11882
    ##  9 14990  2015 buick        encore~ KL4CJ~ monte~ white       good         13671
    ## 10 14990  2015 buick        encore~ KL4CJ~ santa~ white       good         13671
    ## # ... with 26,395 more rows, and 6 more variables: title_status <chr>,
    ## #   description <chr>, id <dbl>, posting_date <dttm>, desc_mini <chr>,
    ## #   new_id <dbl>
…
``` r
# Just as the function above assigned the most appropriate price, the following will assign the most appropriate mileage
miles_wide <- cars_df %>% 
  group_by(new_id) %>%
  arrange(desc(posting_date)) %>% 
  mutate(row = row_number()) %>% 
  pivot_wider(id_cols = new_id, names_from = row, values_from = odometer)

miles_wide$max <- apply(miles_wide[,-1], MARGIN = 1, FUN=my.max)
miles_wide$min <- apply(miles_wide[,-1], MARGIN = 1, FUN=my.min)
miles_wide[which(miles_wide$max - miles_wide$min >0),]
```

    ## # A tibble: 276 x 38
    ## # Groups:   new_id [276]
    ##        new_id   `1`   `2`    `3`   `4`   `5`   `6`   `7`   `8`   `9`  `10`  `11`
    ##         <dbl> <dbl> <dbl>  <dbl> <dbl> <dbl> <dbl> <dbl> <dbl> <dbl> <dbl> <dbl>
    ##  1 7240989361 45388 31338     NA    NA    NA    NA    NA    NA    NA    NA    NA
    ##  2 7240985244 11061 20795     NA    NA    NA    NA    NA    NA    NA    NA    NA
    ##  3 7240983333 67973 62806 122701    NA    NA    NA    NA    NA    NA    NA    NA
    ##  4 7240981630 29450 23838     NA    NA    NA    NA    NA    NA    NA    NA    NA
    ##  5 7240977649 34476 28306  14633    NA    NA    NA    NA    NA    NA    NA    NA
    ##  6 7240976445 76543 76544     NA    NA    NA    NA    NA    NA    NA    NA    NA
    ##  7 7240969415 20438 19990  20095    NA    NA    NA    NA    NA    NA    NA    NA
    ##  8 7240963391 28768 29832  34215 38118 21268    NA    NA    NA    NA    NA    NA
    ##  9 7240952544 18823 17027     NA    NA    NA    NA    NA    NA    NA    NA    NA
    ## 10 7240942048 26585 26832     NA    NA    NA    NA    NA    NA    NA    NA    NA
    ## # ... with 266 more rows, and 26 more variables: 12 <dbl>, 13 <dbl>, 14 <dbl>,
    ## #   15 <dbl>, 16 <dbl>, 17 <dbl>, 18 <dbl>, 19 <dbl>, 20 <dbl>, 21 <dbl>,
    ## #   22 <dbl>, 23 <dbl>, 24 <dbl>, 25 <dbl>, 26 <dbl>, 27 <dbl>, 28 <dbl>,
    ## #   29 <dbl>, 30 <dbl>, 31 <dbl>, 32 <dbl>, 33 <dbl>, 34 <dbl>, 35 <dbl>,
    ## #   max <dbl>, min <dbl>
…
``` r
check_na_function <- function(rowvector){
  rowvector <- rowvector[!is.na(rowvector)]
  return(rowvector[1])
}
# Variables that we'd like to check:
variables_vector <- c("year", "manufacturer", "model", "paint_color", "condition" ,"title_status")

cars_df
```

    ## # A tibble: 51,856 x 15
    ##    price  year manufacturer model   VIN    region paint_color condition odometer
    ##    <dbl> <dbl> <chr>        <chr>   <chr>  <chr>  <chr>       <chr>        <dbl>
    ##  1 74995  2019 ford         f-250sd 1FT7W~ baker~ <NA>        <NA>         13388
    ##  2  9997  2014 honda        civic ~ <NA>   baker~ black       like new     77000
    ##  3 23997  2015 nissan       armada~ <NA>   baker~ black       excellent    55000
    ##  4 57995  2017 ram          2500    3C6UR~ baker~ silver      <NA>         71567
    ##  5 11900  2014 subaru       forest~ <NA>   baker~ <NA>        excellent   105277
    ##  6 52777  2014 porsche      cayman~ WP0AB~ baker~ <NA>        excellent    28537
    ##  7 32995  2010 ram          3500    3D73Y~ baker~ white       <NA>        168291
    ##  8 42000  2014 ram          <NA>    <NA>   baker~ <NA>        <NA>        114000
    ##  9 49995  2019 chevrolet    silver~ 1GC1K~ baker~ white       <NA>         58010
    ## 10    NA  2012 gmc          yukon   1GKS1~ baker~ <NA>        <NA>         46683
    ## # ... with 51,846 more rows, and 6 more variables: title_status <chr>,
    ## #   description <chr>, id <dbl>, posting_date <dttm>, desc_mini <chr>,
    ## #   new_id <dbl>
…
    ##  [1] "52000"    "19500"    "13250"    "14100"    "30900"    "13900"   
    ##  [7] "14995"    "12900"    "15495"    "13500"    "9995"     "29995"   
    ## [13] "20995"    "120000"   "128000"   "23011760" "148000"   "170207"  
    ## [19] "165247"   "149000"   "172817"   "298"      "100000"   "165300"  
    ## [25] "250000"   "2021120"  "181000"

``` r
miles_in_description$odometer <- str_match(miles_in_description$description, "(?:[^\\s]+\\s){0,5}(\\d{3,}[^\\s]?)mi[^\\s]?(?:\\s[^\\s]+){0,5}")[,2] 

miles_in_description
```

    ## # A tibble: 28 x 11
    ##    price  year manufacturer model    odometer title_status paint_color condition
    ##    <dbl> <dbl> <chr>        <chr>    <chr>    <chr>        <chr>       <chr>    
    ##  1 35000  2014 ford         <NA>     52000    clean        white       excellent
    ##  2 19500  2011 chevrolet    silvera~ 19500    clean        <NA>        <NA>     
    ##  3 13250  2013 mini         cooper   13250    clean        <NA>        <NA>     
    ##  4 14100  2014 subaru       outback  14100    clean        <NA>        <NA>     
    ##  5 30900  2014 ram          <NA>     30900    clean        <NA>        <NA>     
    ##  6 13900  2014 ford         fusion   13900    clean        <NA>        <NA>     
    ##  7 14995  1999 chevrolet    corvette 14995    clean        <NA>        <NA>     
    ##  8 12900  2012 gmc          acadia ~ 12900    clean        <NA>        <NA>     
    ##  9 15495  2016 honda        hrv      15495    clean        <NA>        <NA>     
    ## 10 13500  2017 ford         c-max se 13500    clean        <NA>        <NA>     
    ## # ... with 18 more rows, and 3 more variables: description <chr>, new_id <dbl>,
    ## #   region <chr>

All of the above mileage is

``` r
# miles_in_description$odometer <- as.numeric(str_extract(miles_in_description$odometer, "\\d{3,}"))
# miles_in_description[miles_in_description$odometer<1000,]$odometer <- miles_in_description[miles_in_description$odometer<1000,]$odometer*1000

cars_df[match(miles_in_description$new_id, cars_df$new_id),]$odometer <- as.numeric(miles_in_description$odometer)

cars_df <- cars_df %>% filter(odometer>=100)

cars_df %>% filter(year < 2010 & odometer < 400)
```

    ## # A tibble: 222 x 11
    ##    price  year manufacturer  model   odometer title_status paint_color condition
    ##    <dbl> <dbl> <chr>         <chr>      <dbl> <chr>        <chr>       <chr>    
    ##  1  3200  2005 honda         accord~      200 clean        <NA>        good     
    ##  2 11995  2006 toyota        tudnra~      192 clean        white       excellent
    ##  3 85000  2007 chevrolet     tahoe        175 clean        <NA>        good     
    ##  4  4900  2009 volkswagen    rabbit       144 clean        grey        excellent
    ##  5  5900  2007 volvo         xc90 3~      140 rebuilt      grey        <NA>     
    ##  6  7000  2004 bmw           645ci ~      129 clean        <NA>        excellent
    ##  7  5900  2004 mercedes-benz cl500        160 clean        silver      <NA>     
    ##  8  1000  1999 bmw           528i         137 salvage      <NA>        good     
    ##  9 35900  1929 ford          model ~      300 clean        red         like new 
    ## 10  5900  1998 toyota        4runne~      221 clean        silver      excellent
    ## # ... with 212 more rows, and 3 more variables: description <chr>,
    ## #   new_id <dbl>, region <chr>
…
# If we wanted to do any sort of analysis involving color, we'd need to use the following, which is much more restricted
final_df_condition <- drop_na(cars_df %>% 
              select(-c(condition))) #20,960 cars
final_df_paint <- drop_na(cars_df %>% 
              select(-c(paint_color))) # 17,718 cars


drop_na(cars_df)
```

    ## # A tibble: 15,109 x 9
    ##    price  year manufacturer odometer title_status paint_color condition region  
    ##    <dbl> <dbl> <fct>           <dbl> <fct>        <fct>           <dbl> <fct>   
    ##  1  9997  2014 honda           77000 clean        black               3 bakersf~
    ##  2 23997  2015 nissan          55000 clean        black               4 bakersf~
    ##  3 11900  2014 subaru         105277 salvage      blue                4 bakersf~
    ##  4 24995  2013 chevrolet       87636 clean        black               4 bakersf~
    ##  5 17995  2008 jeep           109768 clean        white               4 bakersf~
    ##  6 30995  2015 gmc             92273 clean        white               4 bakersf~
    ##  7  8300  2006 pontiac         67000 clean        silver              4 bakersf~
    ##  8  3500  2009 dodge          157638 clean        blue                3 bakersf~
    ##  9  5300  2014 chevrolet       84717 clean        blue                3 bakersf~
    ## 10  7500  1999 ford           270000 clean        white               2 bakersf~
    ## # ... with 15,099 more rows, and 1 more variable: country <fct>

``` r
final_df
```

    ## # A tibble: 25,681 x 7
    ##    price  year manufacturer odometer title_status region      country
    ##    <dbl> <dbl> <fct>           <dbl> <fct>        <fct>       <fct>  
    ##  1 74995  2019 ford            13388 clean        bakersfield USA    
    ##  2  9997  2014 honda           77000 clean        bakersfield Japan  
    ##  3 23997  2015 nissan          55000 clean        bakersfield Japan  
    ##  4 57995  2017 ram             71567 clean        bakersfield USA    
    ##  5 11900  2014 subaru         105277 salvage      bakersfield Japan  
    ##  6 52777  2014 porsche         28537 clean        bakersfield Germany
    ##  7 32995  2010 ram            168291 clean        bakersfield USA    
    ##  8 42000  2014 ram            114000 clean        bakersfield USA    
    ##  9 49995  2019 chevrolet       58010 clean        bakersfield USA    
    ## 10 62995  2019 ford            73563 clean        bakersfield USA    
    ## # ... with 25,671 more rows
…
